fld_LocationOfficerID
fld_LocationOfficerBarcodeID
fld_LocationOfficerName
311
LO00000311
A DIV
42
LO00000042
AJW-L10WS56
56
LO00000056
AM-L10WS78
71
LO00000071
Amanda Chong
358
LO00000358
Amanda SUM Yun Qian
38
LO00000038
AMNAH-L10WS51
336
LO00000336
AMT-L10WS13
35
LO00000035
AN-L10WS48
72
LO00000072
Anamika Bagchi
73
LO00000073
Anandan Bala
74
LO00000074
Andre Chong Wei Min
420
LO00000420
Andre SOH Kheng Yau
75
LO00000075
Andrew Low
76
LO00000076
Andrew Tan
77
LO00000077
Ang Feng Qian
319
LO00000319
AP
78
LO00000078
April Phang
24
LO00000024
ASC-L10WS33
79
LO00000079
Ashraf Hassan
80
LO00000080
Asran A. Samad
27
LO00000027
ATIKAH-L10WS40
81
LO00000081
Audrey Wong K C
82
LO00000082
Azri Imran Tan
431
LO00000431
BETTY TEO
422
LO00000422
Beverly LIM Kai Li
83
LO00000083
Bhajanvir Singh
16
LO00000016
BL-L10WS04
84
LO00000084
Boppana Sruthi
317
LO00000317
CAD
85
LO00000085
Caleb Tan
86
LO00000086
Carene Poh
87
LO00000087
Cecilia Yeo
458
LO00000458
CHAI YEE HUI
410
LO00000410
CHAN Huseh Mei Agnes
88
LO00000088
Chan Yi Cheng
89
LO00000089
Charlene Tay Chia
357
LO00000357
Charleston TEO Wei Wen
90
LO00000090
Chee Ee Ling
91
LO00000091
Chee Min Ping
92
LO00000092
Chew Xin Ying
459
LO00000459
Chia Yee Hui
93
LO00000093
Chin Jincheng
351
LO00000351
CHONG Kee En
456
LO00000456
CHONG SHENG LIANG DESMOND
94
LO00000094
Chong Yong
95
LO00000095
Christina Koh
96
LO00000096
Christine Liu
342
LO00000342
CJD - LEVEL 10
343
LO00000343
CJD - LEVEL 11 (LEFT)
344
LO00000344
CJD - LEVEL 11 (MIDDLE)
345
LO00000345
CJD - LEVEL 11 (RIGHT)
346
LO00000346
CJD - LEVEL 13 (KALIMA)
339
LO00000339
CJD - LEVEL 9 (LEFT)
340
LO00000340
CJD - LEVEL 9 (MIDDLE)
349
LO00000349
CJD - LEVEL 9 (PTC INCOMING)
350
LO00000350
CJD - LEVEL 9 (PTC OUTGOING)
341
LO00000341
CJD - LEVEL 9 (RIGHT)
348
LO00000348
CJD LEVEL 9 - OUTGOING IPs TO DIV
335
LO00000335
CJY-L10WS43
97
LO00000097
Claire Poh
98
LO00000098
Clement Yong
320
LO00000320
CNB
301
LO00000301
COMPACTOR 12 - LEVEL 10
310
LO00000310
COMPACTOR 12-LEVEL 10
302
LO00000302
COMPACTOR 13 - LEVEL 10
303
LO00000303
COMPACTOR 14 - LEVEL 10
304
LO00000304
COMPACTOR 15 - LEVEL 10
305
LO00000305
COMPACTOR 16 - LEVEL 10
307
LO00000307
COMPACTOR 17 - LEVEL 10
308
LO00000308
COMPACTOR 18 - LEVEL 10
309
LO00000309
COMPACTOR 19 - LEVEL 10
291
LO00000291
COMPACTOR 5 - LEVEL 10
306
LO00000306
CONPACTOR 17 - LEVEL 10
318
LO00000318
CPIB
328
LO00000328
CRA
99
LO00000099
Crystal Tan
298
LO00000298
CY-L10WS70
312
LO00000312
D DIV
100
LO00000100
Daphne Lim
447
LO00000447
DARASHINI
448
LO00000448
DARSHINI
450
LO00000450
DARSHINI RAMIAH
449
LO00000449
DARSHINI RAMISAH
101
LO00000101
David Khoo Kim Leng
453
LO00000453
DAVID THOMAS FONG CRAWSHAW
102
LO00000102
Delicia Charmaine Tan
413
LO00000413
Derek EE Xing Bei
103
LO00000103
Dillon Kok
104
LO00000104
Dora Tay Joo Ling
415
LO00000415
Dorisah Binte JULI
359
LO00000359
DU Xuan
105
LO00000105
Dwayne Lum
106
LO00000106
Dzuyanti
313
LO00000313
E DIV
34
LO00000034
ED-L10WS47
107
LO00000107
Edwin Ng
31
LO00000031
EH-L10WS44
108
LO00000108
Esther Tang
438
LO00000438
Esther Wong Mei Yu
109
LO00000109
Eugene Lee
110
LO00000110
Eunice Lau Su Hui
111
LO00000111
Eunice Ng
314
LO00000314
F DIV
295
LO00000295
FLP-L10WS32
112
LO00000112
Foo Tee Lan Vivienne
113
LO00000113
Francis Ng
315
LO00000315
G DIV
114
LO00000114
Gabriel Choong
457
LO00000457
GABRIEL LIM CHER WEI
115
LO00000115
Gail Wong
426
LO00000426
Geneve Cheng
52
LO00000052
GG-L10WS72
9
LO00000009
GK-L10RM11
7
LO00000007
GO-L10RM09
445
LO00000445
GOH QIU TING
116
LO00000116
Goh Yi Ling
418
LO00000418
Grace CHUA Zhu Ern
460
LO00000460
Grace d/o David
117
LO00000117
Grace Teo
17
LO00000017
HAA-L10WS07
118
LO00000118
Hairul Hakkim s/o Kuthibutheen
119
LO00000119
Hamidah Umar
120
LO00000120
Hamizah Ab Kadir
121
LO00000121
Han Ming Kuang
122
LO00000122
Hay Hung Chun
123
LO00000123
Ho Lian Yi
124
LO00000124
Ho Lye Sum
125
LO00000125
Houston Johannus
430
LO00000430
HUANG Jiahui
411
LO00000411
HUI Jia Lun
14
LO00000014
IEC-L10WS02
126
LO00000126
Intan Suhaily Abu Bakar
321
LO00000321
IPRB
329
LO00000329
IRAS
127
LO00000127
Isaac Tan
316
LO00000316
J DIV
128
LO00000128
Jaime Pang
129
LO00000129
Jalilah Bte Hussien
130
LO00000130
James Chew
131
LO00000131
Jane Lim
132
LO00000132
Jasmine Chin Sabado
133
LO00000133
Jason Chua
134
LO00000134
Jason Nim
60
LO00000060
JCZ-L10WS82
135
LO00000135
Jeannie Tan
136
LO00000136
Jesintha Veijayaratnam
334
LO00000334
JIANG Ke Yue
55
LO00000055
JK-L10WS77
58
LO00000058
JKY-L10WS80
63
LO00000063
JL-L10WS86
1
LO00000001
JLW-L10RM02
436
LO00000436
Joanne Leong Wai Teng
137
LO00000137
John Lu
138
LO00000138
Joshua Jeyaraj
139
LO00000139
Jotham Tay
140
LO00000140
Junainah Saini
141
LO00000141
Juriya D/O Hameem Musthafa
142
LO00000142
Kalaithasan s/o Karuppaya
143
LO00000143
Kalima Ali
355
LO00000355
Kamisah - Despatch Trolley
144
LO00000144
Kamisah Ahmat
435
LO00000435
Kamisah Bte HAMZAH
145
LO00000145
Kamisah Hamzah
146
LO00000146
Kavita Uthrapathy
62
LO00000062
KCY-L10WS85
147
LO00000147
Kelly Ho
148
LO00000148
Kenneth Kee
149
LO00000149
Kenneth Wang
150
LO00000150
Kenny Yang
32
LO00000032
KL-L10WS45
13
LO00000013
KNC-L10WS01
151
LO00000151
Koh Huimin
152
LO00000152
Kong Kuek Foo
153
LO00000153
Kow Keng Siong
28
LO00000028
KPM-L10WS41
154
LO00000154
Krystle Chiang
299
LO00000299
KSE-L10WS74
155
LO00000155
Kumaresan s/o Gohulabalan
156
LO00000156
Kurt Wee
46
LO00000046
KYD-L10WS61
2
LO00000002
KYE-L10RM04
157
LO00000157
Lau Wing Yum
158
LO00000158
Lee Lit Cheng
159
LO00000159
Lee Sing Lit
409
LO00000409
LEE Zu Zhao
160
LO00000160
Lee Zuzhao
446
LO00000446
LEONG WAI TENG
37
LO00000037
LEROY-L10WS50
161
LO00000161
Lester Ho
22
LO00000022
LHM-L10WS25
162
LO00000162
Li Yihong
454
LO00000454
lim cher
451
LO00000451
LIM CHER WEI
163
LO00000163
Lim Shin Hui
164
LO00000164
Lim Yu Hui
165
LO00000165
Lin Yinbing
23
LO00000023
LJY-L10WS 26
296
LO00000296
LKH-L10WS65
50
LO00000050
LMJ-L10WS67
166
LO00000166
Low Chun Yee
49
LO00000049
LSH-L10WS64
330
LO00000330
LTA
360
LO00000360
LU Yiwei
4
LO00000004
LWT-L10RM06
10
LO00000010
LYA-L10RM14
356
LO00000356
Lydia GOH Huey Theng
167
LO00000167
Ma Hanfeng
412
LO00000412
Manickamalar Kayalvizhi PILLAY
172
LO00000172
Mansoor Amir
168
LO00000168
Marcus Foo
169
LO00000169
Maria Neo
170
LO00000170
Mark Jayaratnam
361
LO00000361
Mark TAY Swee Keng
419
LO00000419
Mark Yeo Kee Teng
171
LO00000171
Marshall Lim
331
LO00000331
MAS
173
LO00000173
Mavis Chionh
174
LO00000174
Melvin Teo
48
LO00000048
MFN-L10WS63
65
LO00000065
MH-L10WS88
175
LO00000175
Michael Quilindo
176
LO00000176
Michelle Koh
177
LO00000177
Michelle Lu
40
LO00000040
MICHELLE-L10WS54
178
LO00000178
Mohamed Faizal
332
LO00000332
MOM
36
LO00000036
MUHAMAMAD-L10WS49
179
LO00000179
Muhammad Farhan Shafi’ee
180
LO00000180
Muhammad Hafiz B Ismail
181
LO00000181
Muhammad Imaduddien
182
LO00000182
Muhammad Zulhafni
183
LO00000183
N K Anitha
184
LO00000184
Nabisah Bte Shahul Hameed
185
LO00000185
Nadya Mohamed Noh
26
LO00000026
NB-L10WS39
333
LO00000333
NEA
186
LO00000186
Neo Guang Rong
187
LO00000187
Ng Ai Ling Irene
188
LO00000188
Ng Cheng Thiam
338
LO00000338
NG Jian Fa Edwin
189
LO00000189
Ng Shu Ling
190
LO00000190
Ng Shu Zheng
191
LO00000191
Nicholas Lai Yi Shin
192
LO00000192
Nicholas Wuan
297
LO00000297
NJT-L10WS66
64
LO00000064
NK-L10WS87
45
LO00000045
NN-L10WS60
193
LO00000193
Nor Hayati Bte Abdul Hamid
194
LO00000194
Nor Syazwani Shariff
423
LO00000423
Noraini Binte Salleh
195
LO00000195
Noraisah Mohamed Ibrahim
196
LO00000196
Noraisha Ismail
197
LO00000197
Norman Teo
54
LO00000054
NT-L10WS76
416
LO00000416
Nur Baizura Binte MOHAMED YOM
198
LO00000198
Nur Baizura Md Yom
432
LO00000432
Nur Fazela Binte ABDULLAH
199
LO00000199
Nur Nabilah Yaakup
200
LO00000200
Nurafiqah Ahmad
201
LO00000201
Nuraishah Abdul Latib
202
LO00000202
Nurhashimah Bte Ab Razak
203
LO00000203
Nurul Izzatii Zainalabidin
204
LO00000204
Nurul Nadiah Ismail
61
LO00000061
NY-L10WS83
205
LO00000205
Ong Luan Tze
3
LO00000003
OSJ-L10RM05
287
LO00000287
PANG Seng Hwee
425
LO00000425
PAO Pei Yu Peggy
206
LO00000206
Parvathi K Visalingam (Selvi)
207
LO00000207
Parvathi Menon
326
LO00000326
PCG
208
LO00000208
Pearl Kaur
8
LO00000008
PK-L10RM10
39
LO00000039
PKP-L10WS53
209
LO00000209
Prakash Otharam
210
LO00000210
Puvaneswari Sandirasekaran
211
LO00000211
Quek Jing Feng
212
LO00000212
Rachel Lee
213
LO00000213
Rachel Ng
214
LO00000214
Raja Mohan
215
LO00000215
Rajiv Rai
216
LO00000216
Randeep Singh Koonar
414
LO00000414
Rebecca WONG Pei Xian
217
LO00000217
Rimplejit Kaur
337
LO00000337
RIZ-L10WS24
218
LO00000218
Rohaidah Eismon
44
LO00000044
ROHAYATI-L10WS59
219
LO00000219
Rozana Ahmad Yousoff
220
LO00000220
Rozanah Buang
43
LO00000043
RSK-L10WS57
221
LO00000221
Rusydiah Binte Laksamana
222
LO00000222
Ruth Teng
223
LO00000223
Ryan David Lim
25
LO00000025
SAF-L10WS34
354
LO00000354
Sakbania - Despatch Trolley
293
LO00000293
Sakbania bte RAMAD
224
LO00000224
Sakbania Ramad
11
LO00000011
SAL-L10RM15
225
LO00000225
Samuel Koh Boon Hao
226
LO00000226
Samuel Yap Zong En
227
LO00000227
Sandy Gwee
228
LO00000228
Sarah Ong
229
LO00000229
Sarah Shi
230
LO00000230
Sarah Siaw
29
LO00000029
SARINA-L10WS42
300
LO00000300
SC-L10WS73
322
LO00000322
SCB
231
LO00000231
Sean Lee
417
LO00000417
Sean TEO Zhi Xiong
232
LO00000232
Selene Yap
233
LO00000233
Sellakumaran s/o Sellamuthoo
439
LO00000439
SENTHILKUMARAN S/O SABAPATHY
234
LO00000234
Shahla Iqbal
428
LO00000428
Shana POON Jingjie
235
LO00000235
Sharmila Sripathy
236
LO00000236
Shen Wanqin
429
LO00000429
Shenna TJOA Kai-En
237
LO00000237
Sherinah Syed Mubarak
238
LO00000238
Shermaine Soh Huixin
424
LO00000424
Sheryl YEO Su Hui
239
LO00000239
Shirlynn Loh
240
LO00000240
Sia Jiazheng
323
LO00000323
SIS
241
LO00000241
Siti Adrianni
242
LO00000242
Siti Naqiah Sukar
243
LO00000243
Siti Nuraisha Ahmad
244
LO00000244
Siti Syuhada Hamzah
51
LO00000051
SJG-L10WS71
41
LO00000041
SM-L10WS55
245
LO00000245
Soh Weiqi
246
LO00000246
Star Chen
247
LO00000247
Stella Tan
248
LO00000248
Stephanie Koh
352
LO00000352
Sujatha - Despatch Trolley
434
LO00000434
Sujatha d/o NANOO
249
LO00000249
Sujatha Nanoo
250
LO00000250
Suriani Demon
251
LO00000251
Suriyana Binte Mohamad Haniff
252
LO00000252
Susan Quek
253
LO00000253
Susanna Arthur Daniel
254
LO00000254
Suvarnapriya
20
LO00000020
SV-L10WS21
47
LO00000047
SYZ-L10WS62
255
LO00000255
Tan Ee Kuan
444
LO00000444
TAN JIA QI
256
LO00000256
Tan Si En
257
LO00000257
Tan Soo Tet
258
LO00000258
Tan Wee Hao
259
LO00000259
Tan Wen Hsien
442
LO00000442
TAN WEN SHAN
260
LO00000260
Tan Yanying
292
LO00000292
TAN Zhongshan
455
LO00000455
TANG PEI LE, DEBORAH
261
LO00000261
Tang Shangjun
262
LO00000262
Tania Tien
57
LO00000057
TCC-L10WS79
324
LO00000324
TCIB
263
LO00000263
Teo Lu Jia
427
LO00000427
TEO Siqi
264
LO00000264
Terence Chua
265
LO00000265
Terence Szetoh
290
LO00000290
Test Workstation 2
289
LO00000289
Testing Workstation
6
LO00000006
TGS-L10RM08
266
LO00000266
Theong Li Han
267
LO00000267
Tiara Atikah
325
LO00000325
TIB
19
LO00000019
TJH-L10WS13
30
LO00000030
TJL-L10WS84
53
LO00000053
TJM-L10WS75
18
LO00000018
TJX-L10WS08
12
LO00000012
TKH-L10RM16
5
LO00000005
TKP-L10RM07
268
LO00000268
Toh Hoon Boon
288
LO00000288
Tony Chan
269
LO00000269
Torsten Cheong
59
LO00000059
TS-L10WS81
33
LO00000033
UMA-L10WS46
327
LO00000327
UMSF CID
353
LO00000353
Vasanthi - Despatch Trolley
270
LO00000270
Vasanthi Saminathan
271
LO00000271
Victor Leong Hoi Seng
421
LO00000421
Victor YAO Lida
272
LO00000272
Victoria Amurtham
273
LO00000273
Vimala Samugam
15
LO00000015
VO-L10WS03
21
LO00000021
VS-L10WS23
294
LO00000294
VT-L10WS31
452
LO00000452
WINSTON CHENG
274
LO00000274
Winston Man
443
LO00000443
WONG  MEI
275
LO00000275
Wong Cheng Liang
276
LO00000276
Wong Kok Weng
277
LO00000277
Wong Woon Kwong
278
LO00000278
Yang Ziliang
279
LO00000279
Yik Jia Xiong
280
LO00000280
Yvonne Poon
281
LO00000281
Yvonne Tan
282
LO00000282
Zhang Weiqi
283
LO00000283
Zhou Yihong
284
LO00000284
Zhuo Wenzhao
